…
boundary (singular) fit: see help('isSingular')
Warning messages:
1: In optwrap(optimizer, devfun, getStart(start, rho$pp), lower = rho$lower,  :
  convergence code -4 from nloptwrap: NLOPT_ROUNDOFF_LIMITED: Roundoff errors led to a breakdown of the optimization algorithm. In this case, the returned minimum may still be useful. (e.g. this error occurs in NEWUOA if one tries to achieve a tolerance too close to machine precision.)
2: In checkConv(attr(opt, "derivs"), opt$par, ctrl = control$checkConv,  :
  unable to evaluate scaled gradient
3: In checkConv(attr(opt, "derivs"), opt$par, ctrl = control$checkConv,  :
  Model failed to converge: degenerate  Hessian with 1 negative eigenvalues
4: In checkConv(attr(opt, "derivs"), opt$par, ctrl = control$checkConv,  :
  unable to evaluate scaled gradient
5: In checkConv(attr(opt, "derivs"), opt$par, ctrl = control$checkConv,  :
  Model failed to converge: degenerate  Hessian with 1 negative eigenvalues
> baked <- bake(prep, new_data = NULL)
> baked
# A tibble: 188,318 × 132
      id  cat1  cat2  cat3  cat4  cat5  cat6  cat7  cat8  cat9 cat10 cat11 cat12
   <dbl> <dbl> <dbl> <dbl> <dbl> <dbl> <dbl> <dbl> <dbl> <dbl> <dbl> <dbl> <dbl>
 1     1 3408. 3800. 2902. 3488. 2815. 3260. 2909. 2976. 3828. 2694. 4929. 2656.
 2     2 3408. 3800. 2902. 2827. 2815. 3260. 2909. 2976. 3828. 4994. 2811. 2656.
 3     5 3408. 3800. 2902. 2827. 3464. 3260. 2909. 2976. 3828. 4994. 4929. 5177.
 4    10 1915. 3800. 2902. 3488. 2815. 3260. 2909. 2976. 3828. 2694. 2811. 2656.
 5    11 3408. 3800. 2902. 3488. 2815. 3260. 2909. 2976. 3828. 4994. 2811. 5177.
 6    13 3408. 3800. 2902. 2827. 2815. 3260. 2909. 2976. 3828. 2694. 2811. 2656.
 7    14 3408. 2454. 2902. 2827. 3464. 3260. 2909. 2976. 2512. 2694. 2811. 2656.
 8    20 3408. 3800. 2902. 3488. 2815. 3260. 2909. 2976. 3828. 2694. 2811. 2656.
 9    23 3408. 3800. 5366. 3488. 3464. 3260. 2909. 2976. 3828. 4994. 4929. 5177.
10    24 3408. 3800. 2902. 2827. 3464. 2520. 2909. 2976. 3828. 2694. 2811. 2656.
# ℹ 188,308 more rows
# ℹ 119 more variables: cat13 <dbl>, cat14 <dbl>, cat15 <dbl>, cat16 <dbl>,
#   cat17 <dbl>, cat18 <dbl>, cat19 <dbl>, cat20 <dbl>, cat21 <dbl>,
#   cat22 <dbl>, cat23 <dbl>, cat24 <dbl>, cat25 <dbl>, cat26 <dbl>,
#   cat27 <dbl>, cat28 <dbl>, cat29 <dbl>, cat30 <dbl>, cat31 <dbl>,
#   cat32 <dbl>, cat33 <dbl>, cat34 <dbl>, cat35 <dbl>, cat36 <dbl>,
#   cat37 <dbl>, cat38 <dbl>, cat39 <dbl>, cat40 <dbl>, cat41 <dbl>, …
…
